BİLGİSAYAR ORGANİZASYONU/HW/HW3/ödev3 çözüm/efe'nin/RiscVSingle/sort.vcd
$date
	Sun May 19 14:40:24 2024
$end
$version
	Icarus Verilog
$end
$timescale
	1s
$end
$scope module sort_tb $end
$var wire 32 ! WriteData [31:0] $end
$var wire 1 " MemWrite $end
$var wire 32 # DataAdr [31:0] $end
$var reg 1 $ clk $end
$var reg 1 % reset $end
$var integer 32 & i [31:0] $end
$scope module uut $end
$var wire 1 $ clk $end
$var wire 1 % reset $end
$var wire 32 ' WriteData [31:0] $end
$var wire 32 ( ReadData [31:0] $end
$var wire 32 ) PC [31:0] $end
$var wire 1 " MemWrite $end
$var wire 32 * Instr [31:0] $end
$var wire 32 + DataAdr [31:0] $end
$scope module dmem $end
$var wire 1 $ clk $end
$var wire 32 , rd [31:0] $end
$var wire 1 " we $end
$var wire 32 - wd [31:0] $end
$var wire 32 . a [31:0] $end
$upscope $end
$scope module imem $end
$var wire 32 / rd [31:0] $end
$var wire 32 0 a [31:0] $end
$upscope $end
$scope module rvsingle $end
$var wire 32 1 Instr [31:0] $end
$var wire 32 2 ReadData [31:0] $end
$var wire 1 $ clk $end
$var wire 1 % reset $end
$var wire 1 3 Zero $end
$var wire 32 4 WriteData [31:0] $end
$var wire 2 5 ResultSrc [1:0] $end
$var wire 1 6 RegWrite $end
$var wire 1 7 PCSrc $end
$var wire 32 8 PC [31:0] $end
$var wire 1 " MemWrite $end
$var wire 1 9 Jump $end
$var wire 2 : ImmSrc [1:0] $end
$var wire 1 ; ALUSrc $end
$var wire 32 < ALUResult [31:0] $end
$var wire 3 = ALUControl [2:0] $end
$scope module c $end
$var wire 1 7 PCSrc $end
$var wire 3 > funct3 [2:0] $end
$var wire 1 ? funct7b5 $end
$var wire 7 @ op [6:0] $end
$var wire 1 3 Zero $end
$var wire 2 A ResultSrc [1:0] $end
$var wire 1 6 RegWrite $end
$var wire 1 " MemWrite $end
$var wire 1 9 Jump $end
$var wire 2 B ImmSrc [1:0] $end
$var wire 1 C Branch $end
$var wire 1 ; ALUSrc $end
$var wire 2 D ALUOp [1:0] $end
$var wire 3 E ALUControl [2:0] $end
$scope module ad $end
$var wire 1 F RtypeSub $end
$var wire 3 G funct3 [2:0] $end
$var wire 1 ? funct7b5 $end
$var wire 1 H opb5 $end
$var wire 2 I ALUOp [1:0] $end
$var reg 3 J ALUControl [2:0] $end
$upscope $end
$scope module md $end
$var wire 7 K op [6:0] $end
$var reg 2 L ALUOp [1:0] $end
$var reg 1 ; ALUSrc $end
$var reg 1 C Branch $end
$var reg 2 M ImmSrc [1:0] $end
$var reg 1 9 Jump $end
$var reg 1 " MemWrite $end
$var reg 1 6 RegWrite $end
$var reg 2 N ResultSrc [1:0] $end
$upscope $end
$upscope $end
$scope module dp $end
$var wire 3 O ALUControl [2:0] $end
$var wire 1 ; ALUSrc $end
$var wire 2 P ImmSrc [1:0] $end
$var wire 32 Q Instr [31:0] $end
$var wire 1 7 PCSrc $end
$var wire 32 R ReadData [31:0] $end
$var wire 1 6 RegWrite $end
$var wire 2 S ResultSrc [1:0] $end
$var wire 1 $ clk $end
$var wire 1 % reset $end
$var wire 1 3 Zero $end
$var wire 32 T WriteData [31:0] $end
$var wire 32 U SrcB [31:0] $end
$var wire 32 V SrcA [31:0] $end
$var wire 32 W Result [31:0] $end
$var wire 32 X PCTarget [31:0] $end
$var wire 32 Y PCPlus4 [31:0] $end
$var wire 32 Z PCNext [31:0] $end
$var wire 32 [ PC [31:0] $end
$var wire 32 \ ImmExt [31:0] $end
$var wire 32 ] ALUResult [31:0] $end
$scope module alu $end
$var wire 3 ^ sel [2:0] $end
$var wire 1 3 zero $end
$var wire 32 _ b [31:0] $end
$var wire 32 ` a [31:0] $end
$var reg 32 a y [31:0] $end
$upscope $end
$scope module ext $end
$var wire 2 b immsrc [1:0] $end
$var wire 25 c instr [31:7] $end
$var reg 32 d immext [31:0] $end
$upscope $end
$scope module pcadd4 $end
$var wire 32 e b [31:0] $end
$var wire 32 f y [31:0] $end
$var wire 32 g a [31:0] $end
$upscope $end
$scope module pcaddbranch $end
$var wire 32 h b [31:0] $end
$var wire 32 i y [31:0] $end
$var wire 32 j a [31:0] $end
$upscope $end
$scope module pcmux $end
$var wire 32 k d0 [31:0] $end
$var wire 32 l d1 [31:0] $end
$var wire 1 7 s $end
$var wire 32 m y [31:0] $end
$var parameter 32 n WIDTH $end
$upscope $end
$scope module pcreg $end
$var wire 1 $ clk $end
$var wire 32 o d [31:0] $end
$var wire 1 % reset $end
$var parameter 32 p WIDTH $end
$var reg 32 q q [31:0] $end
$upscope $end
$scope module resultmux $end
$var wire 32 r d0 [31:0] $end
$var wire 32 s d1 [31:0] $end
$var wire 32 t d2 [31:0] $end
$var wire 2 u s [1:0] $end
$var parameter 32 v WIDTH $end
$var reg 32 w y [31:0] $end
$upscope $end
$scope module rf $end
$var wire 5 x a1 [4:0] $end
$var wire 5 y a2 [4:0] $end
$var wire 5 z a3 [4:0] $end
$var wire 1 $ clk $end
$var wire 32 { wd3 [31:0] $end
$var wire 1 6 we3 $end
$var wire 32 | rd2 [31:0] $end
$var wire 32 } rd1 [31:0] $end
$upscope $end
$scope module srcbmux $end
$var wire 32 ~ d0 [31:0] $end
$var wire 32 !" d1 [31:0] $end
$var wire 1 ; s $end
$var wire 32 "" y [31:0] $end
$var parameter 32 #" WIDTH $end
$upscope $end
$upscope $end
$upscope $end
$upscope $end
$upscope $end
$enddefinitions $end
$comment Show the parameter values. $end
$dumpall
b100000 #"
b100000 v
b100000 p
b100000 n
$end
#0
$dumpvars
b0 ""
b0 !"
b0 ~
bx }
b0 |
b0 {
b10 z
b0 y
b10 x
b0 w
b0 u
b100 t
bx s
b0 r
b0 q
b100 o
b100 m
b0 l
b100 k
b0 j
b0 i
b0 h
b0 g
b100 f
b100 e
b0 d
b1011100010 c
b0 b
b0 a
bx `
b0 _
b100 ^
b0 ]
b0 \
b0 [
b100 Z
b100 Y
b0 X
b0 W
bx V
b0 U
b0 T
b0 S
bx R
b10111000100010011 Q
b0 P
b100 O
b0 N
b0 M
b10 L
b10011 K
b100 J
b10 I
0H
b111 G
0F
b100 E
b10 D
0C
b0 B
b0 A
b10011 @
0?
b111 >
b100 =
b0 <
1;
b0 :
09
b0 8
07
16
b0 5
b0 4
13
bx 2
b10111000100010011 1
b0 0
b10111000100010011 /
b0 .
b0 -
bx ,
b0 +
b10111000100010011 *
b0 )
bx (
b0 '
bx &
1%
1$
b0 #
0"
b0 !
$end
#5
0$
#10
b0 V
b0 `
b0 }
1$
#15
0$
#20
1$
#22
0%
#25
0$
b10100 &
b11 (
b11 ,
b11 2
b11 R
b11 s
#30
b110 z
b1011100110 c
b1000 Z
b1000 m
b1000 o
b10111001100010011 *
b10111001100010011 /
b10111001100010011 1
b10111001100010011 Q
b100 X
b100 i
b100 l
b1000 Y
b1000 f
b1000 k
b1000 t
b100 )
b100 0
b100 8
b100 [
b100 g
b100 j
b100 q
1$
#35
0$
#40
bx (
bx ,
bx 2
bx R
bx s
bx W
bx w
bx {
x3
bx #
bx +
bx .
bx <
bx ]
bx a
bx r
b100000 U
b100000 _
b100000 ""
b0 =
b0 E
b0 J
b0 O
b0 ^
bx V
bx `
bx }
b100000 \
b100000 d
b100000 h
b100000 !"
b0 >
b0 G
b11 x
b100 z
b1000000001100000100 c
b1100 Z
b1100 m
b1100 o
b10000000011000001000010011 *
b10000000011000001000010011 /
b10000000011000001000010011 1
b10000000011000001000010011 Q
b101000 X
b101000 i
b101000 l
b1100 Y
b1100 f
b1100 k
b1100 t
b1000 )
b1000 0
b1000 8
b1000 [
b1000 g
b1000 j
b1000 q
1$
#45
0$
#50
b11 (
b11 ,
b11 2
b11 R
b11 s
b0 W
b0 w
b0 {
13
b0 #
b0 +
b0 .
b0 <
b0 ]
b0 a
b0 r
b1000000 U
b1000000 _
b1000000 ""
bx =
bx E
bx J
bx O
bx ^
b1000000 \
b1000000 d
b1000000 h
b1000000 !"
b1 >
b1 G
b10000000001100100100 c
b10000 Z
b10000 m
b10000 o
b100000000011001001000010011 *
b100000000011001001000010011 /
b100000000011001001000010011 1
b100000000011001001000010011 Q
b1001100 X
b1001100 i
b1001100 l
b10000 Y
b10000 f
b10000 k
b10000 t
b1100 )
b1100 0
b1100 8
b1100 [
b1100 g
b1100 j
b1100 q
1$
#55
0$
#60
b1 W
b1 w
b1 {
03
b1 #
b1 +
b1 .
b1 <
b1 ]
b1 a
b1 r
b1 U
b1 _
b1 ""
b11 =
b11 E
b11 J
b11 O
b11 ^
b0 V
b0 `
b0 }
bx !
bx '
bx -
bx 4
bx T
bx |
bx ~
b1 \
b1 d
b1 h
b1 !"
b110 >
b110 G
b10 x
b1 y
b10 z
b10001011000010 c
b10100 Z
b10100 m
b10100 o
b100010110000100010011 *
b100010110000100010011 /
b100010110000100010011 1
b100010110000100010011 Q
b10001 X
b10001 i
b10001 l
b10100 Y
b10100 f
b10100 k
b10100 t
b10000 )
b10000 0
b10000 8
b10000 [
b10000 g
b10000 j
b10000 q
1$
#65
0$
#70
bx (
bx ,
bx 2
bx R
bx s
bx W
bx w
bx {
x3
bx #
bx +
bx .
bx <
bx ]
bx a
bx r
b100000 U
b100000 _
b100000 ""
b1 5
b1 A
b1 N
b1 S
b1 u
b0 D
b0 I
b0 L
b0 =
b0 E
b0 J
b0 O
b0 ^
b0 !
b0 '
b0 -
b0 4
b0 T
b0 |
b0 ~
b100000 \
b100000 d
b100000 h
b100000 !"
b11 @
b11 K
b0 >
b0 G
b1000 x
b0 y
b1000000100000000010 c
bx V
bx `
bx }
b11000 Z
b11000 m
b11000 o
b10000001000000000100000011 *
b10000001000000000100000011 /
b10000001000000000100000011 1
b10000001000000000100000011 Q
b110100 X
b110100 i
b110100 l
b11000 Y
b11000 f
b11000 k
b11000 t
b10100 )
b10100 0
b10100 8
b10100 [
b10100 g
b10100 j
b10100 q
1$
#75
0$
#80
b11 W
b11 w
b11 {
b11 (
b11 ,
b11 2
b11 R
b11 s
13
b0 #
b0 +
b0 .
b0 <
b0 ]
b0 a
b0 r
b0 U
b0 _
b0 ""
b0 V
b0 `
b0 }
b0 \
b0 d
b0 h
b0 !"
b111 >
b111 G
b110 x
b11011100010 c
b11100 Z
b11100 m
b11100 o
b110111000100000011 *
b110111000100000011 /
b110111000100000011 1
b110111000100000011 Q
b11000 X
b11000 i
b11000 l
b11100 Y
b11100 f
b11100 k
b11100 t
b11000 )
b11000 0
b11000 8
b11000 [
b11000 g
b11000 j
b11000 q
1$
#85
0$
#90
bx (
bx ,
bx 2
bx R
bx s
bx W
bx w
bx {
x3
bx #
bx +
bx .
bx <
bx ]
bx a
bx r
b10000100 U
b10000100 _
b10000100 ""
1H
06
b1 :
b1 B
b1 M
b1 P
b1 b
1"
b0 5
b0 A
b0 N
b0 S
b0 u
bx V
bx `
bx }
b11 !
b11 '
b11 -
b11 4
b11 T
b11 |
b11 ~
b10000100 \
b10000100 d
b10000100 h
b10000100 !"
b100011 @
b100011 K
b10 >
b10 G
b1001 x
b10 y
b100 z
b100000100100101000100 c
b100000 Z
b100000 m
b100000 o
b1000001001001010001000100011 *
b1000001001001010001000100011 /
b1000001001001010001000100011 1
b1000001001001010001000100011 Q
b10100000 X
b10100000 i
b10100000 l
b100000 Y
b100000 f
b100000 k
b100000 t
b11100 )
b11100 0
b11100 8
b11100 [
b11100 g
b11100 j
b11100 q
1$
#95
0$
#100
b111 (
b111 ,
b111 2
b111 R
b111 s
b100 W
b100 w
b100 {
03
b100 #
b100 +
b100 .
b100 <
b100 ]
b100 a
b100 r
b1 U
b1 _
b1 ""
0H
16
b0 :
b0 B
b0 M
b0 P
b0 b
0"
b10 D
b10 I
b10 L
b11 V
b11 `
b11 }
bx !
bx '
bx -
bx 4
bx T
bx |
bx ~
b1 \
b1 d
b1 h
b1 !"
b10011 @
b10011 K
b0 >
b0 G
b10 x
b1 y
b10 z
b10001000000010 c
b100100 Z
b100100 m
b100100 o
b100010000000100010011 *
b100010000000100010011 /
b100010000000100010011 1
b100010000000100010011 Q
b100001 X
b100001 i
b100001 l
b100100 Y
b100100 f
b100100 k
b100100 t
b100000 )
b100000 0
b100000 8
b100000 [
b100000 g
b100000 j
b100000 q
1$
#105
0$
#110
b11 (
b11 ,
b11 2
b11 R
b11 s
b10100 U
b10100 _
b10100 ""
b1 W
b1 w
b1 {
b10 =
b10 E
b10 J
b10 O
b10 ^
b10100 \
b10100 d
b10100 h
b10100 !"
b1 #
b1 +
b1 .
b1 <
b1 ]
b1 a
b1 r
b10 >
b10 G
b10100 y
b1 z
b101000001001000001 c
b100 V
b100 `
b100 }
b101000 Z
b101000 m
b101000 o
b1010000010010000010010011 *
b1010000010010000010010011 /
b1010000010010000010010011 1
b1010000010010000010010011 Q
b111000 X
b111000 i
b111000 l
b101000 Y
b101000 f
b101000 k
b101000 t
b100100 )
b100100 0
b100100 8
b100100 [
b100100 g
b100100 j
b100100 q
1$
#115
0$
#120
x7
bx (
bx ,
bx 2
bx R
bx s
bx W
bx w
bx {
1F
x3
bx #
bx +
bx .
bx <
bx ]
bx a
bx r
bx U
bx _
bx ""
1H
06
b10 :
b10 B
b10 M
b10 P
b10 b
0;
1C
b1 D
b1 I
b1 L
b1 =
b1 E
b1 J
b1 O
b1 ^
bx V
bx `
bx }
b11111111111111111111011111100000 \
b11111111111111111111011111100000 d
b11111111111111111111011111100000 h
b11111111111111111111011111100000 !"
b1100011 @
b1100011 K
b0 >
b0 G
1?
b11 x
b11 y
b0 z
b1111111000110001100000000 c
bx00000x01x00 Z
bx00000x01x00 m
bx00000x01x00 o
b11111110001100011000000001100011 *
b11111110001100011000000001100011 /
b11111110001100011000000001100011 1
b11111110001100011000000001100011 Q
b11111111111111111111100000001000 X
b11111111111111111111100000001000 i
b11111111111111111111100000001000 l
b101100 Y
b101100 f
b101100 k
b101100 t
b101000 )
b101000 0
b101000 8
b101000 [
b101000 g
b101000 j
b101000 q
1$
#125
0$
#130
b11 (
b11 ,
b11 2
b11 R
b11 s
13
b0 #
b0 +
b0 .
b0 <
b0 ]
b0 a
b0 r
bx =
bx E
bx J
bx O
bx ^
xH
x6
bx :
bx B
bx M
bx P
bx b
x;
x"
bx 5
bx A
bx N
bx S
bx u
xC
bx D
bx I
bx L
x9
xF
bx \
bx d
bx h
bx !"
bx @
bx K
bx >
bx G
x?
bx x
bx y
bx z
bx c
bx Z
bx m
bx o
bx *
bx /
bx 1
bx Q
bx X
bx i
bx l
bx Y
bx f
bx k
bx t
bx00000x01x00 )
bx00000x01x00 0
bx00000x01x00 8
bx00000x01x00 [
bx00000x01x00 g
bx00000x01x00 j
bx00000x01x00 q
1$
#135
0$
#140
bx )
bx 0
bx 8
bx [
bx g
bx j
bx q
1$
